PLIS/lab5/master/master_out.vcd
$date
	Sat Dec 14 19:50:28 2024
$end
$version
	Icarus Verilog
$end
$timescale
	1ns
$end
$scope module master_tb $end
$var wire 1 ! ss $end
$var wire 1 " sclk $end
$var wire 1 # mosi $end
$var wire 4 $ led_output [3:0] $end
$var reg 1 % clk $end
$var reg 4 & data_buttons [3:0] $end
$var reg 1 ' transmit_button $end
$scope module r $end
$var wire 1 % clk $end
$var wire 4 ( data [3:0] $end
$var wire 4 ) data_buttons [3:0] $end
$var wire 1 ' transmit_button $end
$var parameter 32 * COOLDOWN $end
$var parameter 32 + DATA_SIZE $end
$var reg 2 , bit_counter [1:0] $end
$var reg 4 - led_output [3:0] $end
$var reg 1 # mosi $end
$var reg 1 " sclk $end
$var reg 1 ! ss $end
$var reg 1 . transmit_button_prev $end
$upscope $end
$upscope $end
$enddefinitions $end
$comment Show the parameter values. $end
$dumpall
b100 +
b11 *
$end
#0
$dumpvars
1.
bx -
b0 ,
b1111 )
b1111 (
1'
b1111 &
0%
bx $
0#
1"
1!
$end
#5
b1111 $
b1111 -
1%
#10
0%
#15
1%
#20
0%
#25
1%
#30
0%
#35
1%
#40
0%
#45
1%
#50
0%
#55
1%
#60
0%
#65
1%
#70
0%
#75
1%
#80
0%
#85
1%
#90
0%
#95
1%
#100
0%
b1110 (
b1110 &
b1110 )
#105
b1110 $
b1110 -
1%
#110
0%
#115
1%
#120
0%
#125
1%
#130
0%
#135
1%
#140
0%
#145
1%
#150
0%
#155
1%
#160
0%
#165
1%
#170
0%
#175
1%
#180
0%
#185
1%
#190
0%
#195
1%
#200
0%
#205
1%
#210
0%
#215
1%
#220
0%
#225
1%
#230
0%
#235
1%
#240
0%
#245
1%
#250
0%
#255
1%
#260
0%
#265
1%
#270
0%
#275
1%
#280
0%
#285
1%
#290
0%
#295
1%
#300
0%
#305
1%
#310
0%
#315
1%
#320
0%
#325
1%
#330
0%
#335
1%
#340
0%
#345
1%
#350
0%
#355
1%
#360
0%
#365
1%
#370
0%
#375
1%
#380
0%
#385
1%
#390
0%
#395
1%
#400
0%
b110 (
b110 &
b110 )
#405
b110 $
b110 -
1%
#410
0%
#415
1%
#420
0%
#425
1%
#430
0%
#435
1%
#440
0%
#445
1%
#450
0%
#455
1%
#460
0%
#465
1%
#470
0%
#475
1%
#480
0%
#485
1%
#490
0%
#495
1%
#500
0%
0'
#505
0.
0!
1%
#510
0%
#515
0"
1%
#520
0%
#525
1"
b1 ,
1%
#530
0%
#535
0"
1#
1%
#540
0%
#545
1"
b10 ,
1%
#550
0%
#555
0"
1%
#560
0%
#565
1"
b11 ,
1%
#570
0%
#575
0"
0#
1%
#580
0%
#585
1"
b0 ,
1!
1%
#590
0%
#595
1%
#600
0%
1'
#605
1.
1%
