PLIS/lab5/master/spi_tb.vcd
$date
	Wed Nov 20 21:30:52 2024
$end
$version
	Icarus Verilog
$end
$timescale
	1ps
$end
$scope module spi_tb $end
$var wire 1 ! ss $end
$var wire 6 " slave_led_output [5:0] $end
$var wire 1 # sclk $end
$var wire 1 $ mosi $end
$var wire 6 % master_led_output [5:0] $end
$var reg 1 & clk $end
$var reg 1 ' increment_button $end
$var reg 1 ( transmit_button $end
$scope module master_inst $end
$var wire 1 & clk $end
$var wire 1 ' increment_button $end
$var wire 1 ( transmit_button $end
$var parameter 3 ) FINISH $end
$var parameter 4 * HELP $end
$var parameter 3 + IDLE $end
$var parameter 3 , LOAD $end
$var parameter 3 - TRANSMIT $end
$var reg 3 . bit_counter [2:0] $end
$var reg 3 / current_bit [2:0] $end
$var reg 6 0 data_to_send [5:0] $end
$var reg 1 1 increment_button_prev $end
$var reg 6 2 led_output [5:0] $end
$var reg 1 $ mosi $end
$var reg 1 # sclk $end
$var reg 1 ! ss $end
$var reg 3 3 state [2:0] $end
$var reg 1 4 transmit_button_prev $end
$upscope $end
$scope module slave_inst $end
$var wire 1 & clk $end
$var wire 1 $ mosi $end
$var wire 1 # sclk $end
$var wire 1 ! ss $end
$var reg 3 5 bit_counter [2:0] $end
$var reg 6 6 led_output [5:0] $end
$var reg 6 7 shift_reg [5:0] $end
$upscope $end
$upscope $end
$enddefinitions $end
$comment Show the parameter values. $end
$dumpall
b10 -
b1 ,
b0 +
b1111 *
b11 )
$end
#0
$dumpvars
b0 7
b0 6
b0 5
04
b0 3
b11110 2
01
b11110 0
b101 /
b0 .
1(
1'
0&
b11110 %
0$
1#
b0 "
1!
$end
#5000
b1 3
b111100 0
14
11
1&
#10000
0&
#15000
b10 3
b101 .
0!
1&
#20000
0&
#25000
1$
0#
b1 5
1&
#30000
0&
#35000
b100 .
b100 /
1#
1&
#40000
0&
#45000
0#
b10 5
b1 7
1&
#50000
0&
#55000
b11 .
b11 /
1#
1&
#60000
0(
0&
#65000
0#
04
b11 5
b11 7
1&
#70000
0&
#75000
b10 .
b10 /
1#
1&
#80000
0&
#85000
0#
b100 5
b111 7
1&
#90000
1(
0&
#95000
b1 .
b1 /
1#
14
1&
#100000
0&
#105000
0$
0#
b101 5
b1111 7
1&
#110000
0&
#115000
b0 .
b0 /
1#
1&
#120000
0&
#125000
0#
b11110 "
b11110 6
b0 5
b11110 7
1&
#130000
0&
#135000
b101 /
b111 .
1#
1&
#140000
0&
#145000
1$
0#
b1 5
b111100 7
1&
#150000
0'
0&
#155000
b110 .
b100 /
1#
01
1&
#160000
0&
#165000
0#
b10 5
b111001 7
1&
#170000
0&
#175000
b101 .
b11 /
1#
1&
#180000
1'
0&
#185000
0#
11
b11 5
b110011 7
1&
#190000
0&
#195000
b100 .
b10 /
1#
1&
#200000
0&
#205000
0#
b100 5
b100111 7
1&
#210000
0&
#215000
b11 .
b1 /
1#
1&
#220000
0'
0&
#225000
0$
0#
01
b101 5
b1111 7
1&
#230000
0&
#235000
b10 .
b0 /
1#
1&
#240000
0&
#245000
0#
b0 5
b11110 7
1&
#250000
1'
0&
#255000
b1 .
b111 /
1#
11
1&
#260000
0&
#265000
x$
0#
b1 5
b111100 7
1&
#270000
0&
#275000
b0 .
b110 /
1#
1&
#280000
0&
#285000
0#
b10 5
b11100x 7
1&
#290000
0'
0&
#295000
b11 3
1#
01
1&
#300000
0&
#305000
b0 3
b101 .
b101 /
b111100 %
b111100 2
b11110 0
0$
1!
0#
b11 5
b1100xx 7
1&
#310000
0&
#315000
b0 5
1&
#320000
1'
0&
#325000
b11110 %
b11110 2
b111100 0
11
1&
#330000
0&
#335000
1&
#340000
0&
#345000
1&
#350000
0&
#355000
1&
#360000
0'
0&
#365000
01
1&
#370000
0&
#375000
1&
#380000
0&
#385000
1&
#390000
1'
0&
#395000
b111100 %
b111100 2
b111001 0
11
1&
#400000
0&
#405000
1&
#410000
0&
#415000
1&
#420000
0&
#425000
1&
#430000
0'
0&
#435000
01
1&
#440000
0&
#445000
1&
#450000
0&
#455000
1&
#460000
1'
0&
#465000
b111001 %
b111001 2
b110011 0
11
1&
#470000
0&
#475000
1&
#480000
0&
#485000
1&
#490000
0&
#495000
1&
#500000
0&
#505000
1&
#510000
0&
#515000
1&
#520000
0(
0&
#525000
04
1&
#530000
0&
#535000
1&
#540000
0&
#545000
1&
#550000
1(
0&
#555000
b1 3
14
1&
#560000
0&
#565000
b10 3
0!
1&
#570000
0&
#575000
b100 .
b100 /
1#
1&
#580000
0&
#585000
1$
0#
b1 5
b100xx0 7
1&
#590000
0&
#595000
b11 .
b11 /
1#
1&
#600000
0&
#605000
0$
0#
b10 5
b0xx01 7
1&
#610000
0&
#615000
b10 .
b10 /
1#
1&
#620000
0&
#625000
0#
b11 5
b0xx010 7
1&
#630000
0&
#635000
b1 .
b1 /
1#
1&
#640000
0&
#645000
1$
0#
b100 5
bx0100 7
1&
#650000
0&
#655000
b0 .
b0 /
1#
1&
#660000
0&
#665000
0#
b101 5
bx01001 7
1&
#670000
0&
#675000
b101 /
b111 .
1#
1&
#680000
0&
#685000
0#
b10011 "
b10011 6
b0 5
b10011 7
1&
#690000
0&
#695000
b110 .
b100 /
1#
1&
#700000
0&
#705000
0#
b1 5
b100111 7
1&
#710000
0&
#715000
b101 .
b11 /
1#
1&
#720000
0&
#725000
0$
0#
b10 5
b1111 7
1&
#730000
0&
#735000
b100 .
b10 /
1#
1&
#740000
0&
#745000
0#
b11 5
b11110 7
1&
#750000
0&
#755000
b11 .
b1 /
1#
1&
#760000
0&
#765000
1$
0#
b100 5
b111100 7
1&
#770000
0&
#775000
b10 .
b0 /
1#
1&
#780000
0&
#785000
0#
b101 5
b111001 7
1&
#790000
0&
#795000
b1 .
b111 /
1#
1&
#800000
0&
#805000
x$
0#
b110011 "
b110011 6
b0 5
b110011 7
1&
#810000
0&
#815000
b0 .
b110 /
1#
1&
#820000
0&
#825000
0#
b1 5
b10011x 7
1&
#830000
0&
#835000
b11 3
1#
1&
#840000
0&
#845000
b0 3
b101 .
b101 /
b110011 %
b110011 2
b11110 0
0$
1!
0#
b10 5
b11xx 7
1&
#850000
0&
#855000
b0 5
1&
